testbench.vcd
$date
	Wed Jan 23 14:43:40 2019
$end
$version
	Icarus Verilog
$end
$timescale
	1ps
$end
$scope module testbench $end
$var wire 4 ! sdio [3:0] $end
$var wire 1 " sclk $end
$var wire 1 # cs $end
$var wire 1 $ busy $end
$var reg 1 % clock $end
$var reg 64 & data_input [63:0] $end
$var reg 5 ' packs_to_send [4:0] $end
$var reg 1 ( reset_n $end
$var reg 1 ) trigger $end
$var integer 32 * i [31:0] $end
$scope module dut $end
$var wire 1 % clock $end
$var wire 64 + data_input [63:0] $end
$var wire 5 , packs_to_send [4:0] $end
$var wire 1 ( reset_n $end
$var wire 1 ) trigger $end
$var reg 1 $ busy $end
$var reg 1 # cs $end
$var reg 64 - data_send [63:0] $end
$var reg 5 . packs_cntr [4:0] $end
$var reg 1 " sclk $end
$var reg 4 / sdio [3:0] $end
$var reg 1 0 state $end
$upscope $end
$upscope $end
$enddefinitions $end
#0
$dumpvars
x0
bx /
bx .
bx -
bx ,
b1001100001110110010101000011001000010000 +
b1010 *
x)
0(
bx '
b1001100001110110010101000011001000010000 &
0%
x$
x#
x"
bx !
$end
#10000
b0 .
b0 !
b0 /
1"
1$
00
1%
#20000
0%
#30000
1%
#40000
0%
#50000
1%
#60000
0%
#70000
1%
#80000
0%
#90000
1%
#100000
1(
0%
#110000
0$
b1010 '
b1010 ,
1%
#120000
1)
0%
#130000
b1001100001110110010101000011001000010000 -
b1010 .
1$
10
0)
1%
#140000
0%
#150000
b1001 .
0"
1%
#160000
b100110000111011001010100001100100001 -
1"
0%
#170000
b1000 .
b1 !
b1 /
0"
1%
#180000
b10011000011101100101010000110010 -
1"
0%
#190000
b111 .
b10 !
b10 /
0"
1%
#200000
b1001100001110110010101000011 -
1"
0%
#210000
b110 .
b11 !
b11 /
0"
1%
#220000
b100110000111011001010100 -
1"
0%
#230000
b101 .
b100 !
b100 /
0"
1%
#240000
b10011000011101100101 -
1"
0%
#250000
b100 .
b101 !
b101 /
0"
1%
#260000
b1001100001110110 -
1"
0%
#270000
b11 .
b110 !
b110 /
0"
1%
#280000
b100110000111 -
1"
0%
#290000
b10 .
b111 !
b111 /
0"
1%
#300000
b10011000 -
1"
0%
#310000
b1 .
b1000 !
b1000 /
0"
1%
#320000
b1001 -
1"
0%
#330000
b0 .
b1001 !
b1001 /
0"
1%
#340000
00
b0 -
1"
0%
#350000
b0 !
b0 /
0$
1%
